{
	"id": "434987d5-a9b2-4cf5-a902-59b477433b02",
	"name": "stories-management",
	"values": [
		{
			"key": "base_url",
			"value": "http://localhost:3001/api/v1",
			"type": "default",
			"enabled": true
		}
	],
	"_postman_variable_scope": "environment",
	"_postman_exported_at": "2022-04-17T08:30:45.852Z",
	"_postman_exported_using": "Postman/9.15.13"
}